{
  "development": {
    "use_env_variable": "DATABASE_URL",
    "pool": {
      "log": true,
      "max": 5,
      "min": 0,
      "acquire": 30000,
      "idle": 10000
    },
    "dialectOptions": {
      "ssl": {
        "require": true,
        "rejectUnauthorized": false
      }
    },
    "logging": false
  },
  "test": {
    "use_env_variable": "DATABASE_URL",
    "pool": {
      "log": true,
      "max": 5,
      "min": 0,
      "acquire": 30000,
      "idle": 10000
    },
    "dialectOptions": {
      "ssl": {
        "require": true,
        "rejectUnauthorized": false
      }
    },
    "logging": false
  },
  "production": {
    "use_env_variable": "DATABASE_URL",
    "pool": {
      "log": true,
      "max": 5,
      "min": 0,
      "acquire": 30000,
      "idle": 10000
    },
    "dialectOptions": {
      "ssl": {
        "require": true,
        "rejectUnauthorized": false
      }
    },
    "logging": false
  }
}
